// Jest Snapshot v1, https://goo.gl/fbAQLP

exports[`company.js test 1`] = `
Object {
  "address": Object {
    "city": "Greenland",
    "county": "Avon",
    "streetAddress": "46014 Crystal Locks",
    "zipCode": "58480-1022",
  },
  "ceo": "Jack Little",
  "companyId": 3,
  "email": "Haskell30@yahoo.com",
  "homepage": "https://kyleigh.info",
  "name": "Bernier - Quigley",
  "phone": "(364) 590-7592",
}
`;
